…
As we can see, a lot of trips claim Midtown regardless of where they ended. The Upper East Side and Upper West Side are also common origins for trips that drop off in one of the uptown neighborhoods.

### Exercises

Let's return to one of the questions we asked in the last section: Assuming that a traveler leaves from a given neighborhood, which neighborhoods are they most likely to go to? To answer this question, in we obtained the proportion of trips that fan out into all the different neighborhoods, given that they all start from the same neighborhood. The results are stored in the `rxcs` data. If we sort the data and keep only the relevant columns, it's easier to make sense of it:

``` r
rxcs %>%
  select(pickup_nb, dropoff_nb, pct = pct_by_pickup_nb) %>%
  arrange(pickup_nb, desc(pct))
```

    ## # A tibble: 778 × 3
    ##    pickup_nb         dropoff_nb       pct
    ##       <fctr>             <fctr>     <dbl>
    ## 1  Chinatown            Midtown 11.223169
    ## 2  Chinatown Financial District  9.696763
    ## 3  Chinatown       East Village  8.974446
    ## 4  Chinatown    Lower East Side  8.735945
    ## 5  Chinatown           Gramercy  8.483816
    ## 6  Chinatown  Greenwich Village  7.134583
    ## 7  Chinatown            Chelsea  6.746167
    ## 8  Chinatown   Garment District  5.948893
    ## 9  Chinatown               Soho  4.204429
    ## 10 Chinatown            Tribeca  3.870528
    ## # ... with 768 more rows
…
